Data Sourcing and Processing – Movements of Minumums, Maximums and Moments
…
monthly_weather 

# A tibble: 1,392 × 15
    year month   min  mean   max date       season season_color season_year
   <int> <chr> <int> <dbl> <int> <date>     <chr>  <chr>              <dbl>
 1  1910 Jan      21  44.7    72 1910-01-01 Winter #2f77c3             1910
 2  1910 Feb      18  48.2    75 1910-02-01 Winter #2f77c3             1910
 3  1910 Mar      31  55.6    86 1910-03-01 Spring #61bf9a             1910
 4  1910 Apr      35  59.3    99 1910-04-01 Spring #61bf9a             1910
 5  1910 May      30  63.5   110 1910-05-01 Spring #61bf9a             1910
 6  1910 June     34  65     105 1910-06-01 Summer #f94994             1910
 7  1910 July     36  69.4   109 1910-07-01 Summer #f94994             1910
 8  1910 Aug      36  67.6   106 1910-08-01 Summer #f94994             1910
 9  1910 Sept     35  66.1   105 1910-09-01 Fall   #eb9911             1910
10  1910 Oct      32  61.7   104 1910-10-01 Fall   #eb9911             1910
# ℹ 1,382 more rows
# ℹ 6 more variables: season_label <chr>, xmin <date>, xmax <date>,
#   seas_avg <dbl>, seas_max <int>, seas_min <int>
…
